^C:\USERS\CBREN\DESKTOP\GAME PROGRAMS\GAME ARCHITECTURE PROJECT 1\PROG50016 - PROJECT 1 CONNOR BRENNAN\PROG50016 - PROJECT 1 CONNOR BRENNAN\DEBUG\ENEMY.OBJ|C:\USERS\CBREN\DESKTOP\GAME PROGRAMS\GAME ARCHITECTURE PROJECT 1\PROG50016 - PROJECT 1 CONNOR BRENNAN\PROG50016 - PROJECT 1 CONNOR BRENNAN\DEBUG\JSON.OBJ|C:\USERS\CBREN\DESKTOP\GAME PROGRAMS\GAME ARCHITECTURE PROJECT 1\PROG50016 - PROJECT 1 CONNOR BRENNAN\PROG50016 - PROJECT 1 CONNOR BRENNAN\DEBUG\MAIN.OBJ|C:\USERS\CBREN\DESKTOP\GAME PROGRAMS\GAME ARCHITECTURE PROJECT 1\PROG50016 - PROJECT 1 CONNOR BRENNAN\PROG50016 - PROJECT 1 CONNOR BRENNAN\DEBUG\METEOR.OBJ|C:\USERS\CBREN\DESKTOP\GAME PROGRAMS\GAME ARCHITECTURE PROJECT 1\PROG50016 - PROJECT 1 CONNOR BRENNAN\PROG50016 - PROJECT 1 CONNOR BRENNAN\DEBUG\PLAYER.OBJ|C:\USERS\CBREN\DESKTOP\GAME PROGRAMS\GAME ARCHITECTURE PROJECT 1\PROG50016 - PROJECT 1 CONNOR BRENNAN\PROG50016 - PROJECT 1 CONNOR BRENNAN\DEBUG\WINDOW.OBJ
C:\USERS\CBREN\DESKTOP\GAME PROGRAMS\GAME ARCHITECTURE PROJECT 1\PROG50016 - PROJECT 1 CONNOR BRENNAN\DEBUG\PROG50016 - PROJECT 1 CONNOR BRENNAN.EXE
C:\USERS\CBREN\DESKTOP\GAME PROGRAMS\GAME ARCHITECTURE PROJECT 1\PROG50016 - PROJECT 1 CONNOR BRENNAN\PROG50016 - PROJECT 1 CONNOR BRENNAN\DEBUG\PROG50016 - PROJECT 1 CONNOR BRENNAN.ILK
C:\USERS\CBREN\DESKTOP\GAME PROGRAMS\GAME ARCHITECTURE PROJECT 1\PROG50016 - PROJECT 1 CONNOR BRENNAN\DEBUG\PROG50016 - PROJECT 1 CONNOR BRENNAN.PDB
